{
  "browserSupport": "last 3 versions, > 1%",
  "paths": {
    "dest": {
      "fonts": "../website/web/app/themes/timber/static/fonts",
      "js": "../website/web/app/themes/timber/static/js",
      "styles": "../website/web/app/themes/timber",
      "img": "../website/web/app/themes/timber/static/img"
    },
    "src": {
      "fonts": "src/fonts/**/*.{ttf,woff,woff2,eof,svg}",
      "js": "./src/js/app.js",
      "styles": "src/scss/style.scss",
      "img": "src/img/**/*"
    },
    "watch": {
      "fonts": "src/fonts/**/*.{ttf,woff,woff2,eof,svg}",
      "js": "src/js/**/*.js",
      "styles": "src/scss/**/*.scss",
      "img": "src/img/**/*",
      "twig": "src/twig/**/*.html",
      "css": "../website/web/app/themes/timber"
    }
  }
}
