{
  "browserSupport": "last 3 versions, > 1%",
  "paths": {
    "dest": {
      "fonts": "../website/web/assets/fonts",
      "js": "../website/web/assets/js",
      "styles": "../website/web/assets/css",
      "img": "../website/web/assets/img"
    },
    "src": {
      "fonts": "src/fonts/**/*.{ttf,woff,woff2,eof,svg}",
      "js": "./src/js/app.js",
      "styles": "src/scss/style.scss",
      "img": "src/img/**/*"
    },
    "watch": {
      "fonts": "src/fonts/**/*.{ttf,woff,woff2,eof,svg}",
      "js": "src/js/**/*.js",
      "styles": "src/scss/**/*.scss",
      "img": "src/img/**/*"
    }
  }
}
