
<svg class="logo-text" width="140px" height="34px" viewBox="0 0 140 34" version="1.1" xmlns="http://www.w3.org/2000/svg" xmlns:xlink="http://www.w3.org/1999/xlink">
  <title>Radikal.</title>
  <g stroke="none" stroke-width="1" fill="#000000" fill-rule="nonzero">
    <path d="M137.476815,33.6710411 C136.089387,33.6710411 134.964654,32.5463083 134.964654,31.1588801 C134.964654,29.7714519 136.089387,28.6467192 137.476815,28.6467192 C138.864244,28.6467192 139.988976,29.7714519 139.988976,31.1588801 C139.988976,32.5463083 138.864244,33.6710411 137.476815,33.6710411 Z M132.556605,31.9464567 L129.427122,33.9833771 C129.330711,34.0458707 129.201901,34.0184644 129.139283,33.9221347 C128.310061,32.6433946 127.407349,31.2213473 127.407349,28.3956255 L127.407349,0.206999125 C127.408023,0.0924788214 127.501051,-1.98137146e-06 127.615573,0 L131.353806,0 C131.46717,0.00134168716 131.558363,0.093626537 131.558355,0.206999125 L131.558355,28.3956255 C131.558355,30.0846894 132.062992,30.8355206 132.552931,31.5630796 L132.616623,31.6573928 C132.647471,31.7035443 132.65849,31.7601522 132.647205,31.8145051 C132.63592,31.8688579 132.603277,31.9164004 132.556605,31.9464567 Z M125.049519,31.6598425 C125.080534,31.7049629 125.092041,31.760685 125.081436,31.8144003 C125.070832,31.8681155 125.039011,31.9152837 124.993176,31.9452318 C124.560805,32.2244969 123.35923,33.0022747 121.858793,33.9821522 C121.762752,34.0451505 121.634004,34.0201616 121.568504,33.9258093 C120.789501,32.7695538 119.840245,31.2127734 119.840245,28.3956255 L119.840245,21.7385827 C114.348031,21.8512686 110.246019,22.7294838 108.319335,23.2806649 C108.274775,23.2929107 108.244081,23.333669 108.244619,23.3798775 L108.244619,29.295888 C108.244619,29.3533875 108.291232,29.4 108.348731,29.4 L118.098513,29.4 C118.327834,29.4 118.513736,29.5859017 118.513736,29.8152231 L118.513736,32.304112 C118.513736,32.634484 118.382496,32.9513249 118.148888,33.1849332 C117.915279,33.4185415 117.598439,33.5497813 117.268066,33.5497813 L107.684864,33.5497813 C105.699442,33.5497813 104.089939,31.9402782 104.089939,29.9548556 L104.089939,20.5345582 C104.090184,20.4500502 104.141481,20.3740717 104.219773,20.3422572 L105.387052,19.8694663 C105.595276,19.7849519 110.297463,18.0015748 118.183027,17.6341207 C118.652494,17.6219657 119.122249,17.6411978 119.589151,17.6916885 C119.111461,15.6853893 117.818023,14.7618548 114.619948,14.7618548 C111.887482,14.7787404 109.179297,15.2762636 106.619248,16.231671 C106.524001,16.2682676 106.416351,16.2290745 106.366929,16.1398075 L104.511286,12.8523185 C104.481822,12.8003664 104.476085,12.7382635 104.495533,12.6817931 C104.514982,12.6253227 104.557743,12.5799223 104.612948,12.5571304 C108.068241,11.1375328 111.845669,10.6120735 114.617498,10.6120735 C121.012423,10.6120735 123.990026,13.7856518 123.990026,20.6006999 L123.990026,28.3956255 C123.990026,30.0834646 124.493438,30.8355206 124.983377,31.5618548 L125.049519,31.6598425 Z M102.781802,33.2888889 C102.797846,33.3510007 102.784005,33.4170415 102.744371,33.4674842 C102.704738,33.5179269 102.643847,33.5469998 102.579703,33.5461067 L98.6920385,33.5461067 C98.6001065,33.5469096 98.5189334,33.4862803 98.4936133,33.3979003 C97.6104987,30.3798775 95.9765529,26.2251969 92.6143482,23.0405949 L86.9102362,29.6915136 C86.8477858,29.7669634 86.8135708,29.8618125 86.8134733,29.959755 L86.8134733,33.3795276 C86.8134733,33.4945265 86.7202483,33.5877515 86.6052493,33.5877515 L82.8670166,33.5877515 C82.7524963,33.5870779 82.6600155,33.4940498 82.6600175,33.3795276 L82.6600175,0.208223972 C82.6600175,0.093901512 82.7526942,0.00122484689 82.8670166,0.00122484689 L86.6052493,0.00122484689 C86.7197716,0.00122286552 86.8127997,0.0937036683 86.8134733,0.208223972 L86.8134733,23.3578303 L96.8069991,11.5233596 C96.8461835,11.4766699 96.9040509,11.4497548 96.9650044,11.4498688 L101.852143,11.4498688 C101.933143,11.4495329 102.006896,11.4964719 102.040889,11.5699933 C102.074883,11.6435147 102.062871,11.7301087 102.010149,11.791601 L95.2930884,19.8572178 C99.8887139,24.1111111 101.864392,29.712336 102.781802,33.2888889 Z M76.1290464,11.4841645 L76.8825022,11.4841645 C77.8213863,11.4841645 78.5825022,12.2452804 78.5825022,13.1841645 L78.5825022,31.8877515 C78.5825022,32.8266356 77.8213863,33.5877515 76.8825022,33.5877515 L76.1290464,33.5877515 C75.1901623,33.5877515 74.4290464,32.8266356 74.4290464,31.8877515 L74.4290464,13.1841645 C74.4290464,12.2452804 75.1901623,11.4841645 76.1290464,11.4841645 Z M76.5627297,6.35083115 C75.1753015,6.35083115 74.0505687,5.22609836 74.0505687,3.83867017 C74.0505687,2.45124197 75.1753015,1.32650919 76.5627297,1.32650919 C77.9501579,1.32650919 79.0748906,2.45124197 79.0748906,3.83867017 C79.0748906,5.22609836 77.9501579,6.35083115 76.5627297,6.35083115 Z M71.3252843,31.5630796 C70.8353456,30.8355206 70.3307087,30.0846894 70.3307087,28.3956255 L70.3307087,0.206999125 C70.3307087,0.0926766651 70.238032,0 70.1237095,0 L66.3854768,0 C66.2709545,-1.98137146e-06 66.1779265,0.0924788214 66.1772528,0.206999125 L66.1772528,13.5492563 C64.7245844,11.9312336 61.8817148,10.7492563 59.2629921,10.7492563 C53.1914261,10.7492563 48.4353456,15.8372703 48.4353456,22.3853018 C48.4353456,28.9333333 53.1914261,33.9809274 59.2629921,33.9809274 C62.048294,33.9809274 64.7944007,32.8614173 66.511636,30.7216098 C66.7112861,32.0358705 67.4437445,33.2227472 67.8761155,33.8755906 C67.9380926,33.9696836 68.0642158,33.996437 68.1590551,33.935608 C69.8113736,32.8944882 71.3289589,31.9452318 71.3289589,31.9452318 C71.3756302,31.9151756 71.4082735,31.8676331 71.4195586,31.8132802 C71.4308437,31.7589274 71.4198249,31.7023194 71.3889764,31.656168 L71.3252843,31.5630796 Z M59.2629921,29.9952756 C55.51986,29.9952756 52.5888014,26.5951006 52.5888014,22.3865267 C52.5888014,18.1779528 55.51986,14.7569554 59.2629921,14.7569554 C63.0306212,14.7569554 66.0547682,18.2367454 66.0547682,22.3865267 C66.0547682,26.536308 63.0306212,29.9952756 59.2629921,29.9952756 Z M47.1786527,31.5618548 C47.2068241,31.6010499 47.2215223,31.6279965 47.2435696,31.6598425 C47.2740193,31.7053655 47.2849415,31.761198 47.2738909,31.8148395 C47.2628403,31.868481 47.2307399,31.9154506 47.1847769,31.9452318 C46.7511811,32.2244969 45.5496063,33.0022747 44.0491689,33.9821522 C43.9535087,34.0450224 43.8251509,34.0200035 43.760105,33.9258093 C42.9798775,32.7695538 42.0306212,31.2127734 42.0306212,28.3956255 L42.0306212,21.7385827 C36.5384077,21.8512686 32.4363955,22.7294838 30.5097113,23.2806649 C30.4653798,23.2929966 30.4350984,23.3338766 30.4362205,23.3798775 L30.4362205,29.295888 C30.4362165,29.3529125 30.4820871,29.3993291 30.5391076,29.4 L40.2888889,29.4 C40.5182103,29.4 40.704112,29.5859017 40.704112,29.8152231 L40.704112,32.304112 C40.704112,32.9920761 40.1464068,33.5497813 39.4584427,33.5497813 L29.8764654,33.5497813 C28.9231445,33.5497813 28.0088869,33.1709922 27.3349021,32.4967777 C26.6609172,31.8225631 26.2824397,30.9081766 26.2827647,29.9548556 L26.2827647,20.5345582 C26.282472,20.4502482 26.3333423,20.3741849 26.4113736,20.3422572 L27.5786527,19.8694663 C27.7868766,19.7849519 32.4890639,18.0015748 40.3746282,17.6341207 C40.8440955,17.6219438 41.3138516,17.641176 41.7807524,17.6916885 C41.3030621,15.6853893 40.0096238,14.7618548 36.8115486,14.7618548 C34.0790827,14.7787404 31.3708978,15.2762636 28.8108486,16.231671 C28.7156025,16.2682676 28.6079523,16.2290745 28.5585302,16.1398075 L26.7053368,12.8523185 C26.67628,12.8002871 26.6707637,12.7383416 26.6901695,12.6819947 C26.7095753,12.6256477 26.7520654,12.5802355 26.8069991,12.5571304 C30.2622922,11.1375328 34.03972,10.6120735 36.8115486,10.6120735 C43.2064742,10.6120735 46.184077,13.7856518 46.184077,20.6006999 L46.184077,28.3956255 C46.184077,30.0834646 46.6887139,30.8355206 47.1786527,31.5618548 Z M25.1424322,33.3893263 L18.936133,22.7466317 C18.5638858,22.143989 18.1488188,21.5688716 17.6941382,21.0257218 L17.8276465,20.9644794 C18.3751531,20.7305337 18.8785652,20.5014873 19.3366579,20.2810149 C21.0572445,19.4380158 22.1495506,17.6908009 22.1538058,15.7748031 L22.1538058,7.85494313 C22.1541307,6.24899938 21.5163997,4.70871974 20.3809408,3.57303115 C19.245482,2.43734256 17.7053314,1.79930005 16.0993876,1.79930009 L0.208223972,1.79930009 C0.0932250477,1.79930009 5.68434189e-14,1.89252514 5.68434189e-14,2.00752406 L5.68434189e-14,33.3636045 C5.68434189e-14,33.4786035 0.0932250477,33.5718285 0.208223972,33.5718285 L3.94645669,33.5718285 C4.060977,33.5711549 4.1534578,33.4781268 4.15345582,33.3636045 L4.15345582,24.5312336 C7.33811105,24.1406424 10.4816481,23.4671737 13.5468066,22.5188101 C13.7284257,22.4622257 13.925196,22.5370895 14.0232721,22.7000875 L20.3214348,33.4456693 C20.3590528,33.5078469 20.4263662,33.5459138 20.4990376,33.5461067 L25.0530184,33.5461067 C25.0902703,33.5459661 25.1246083,33.5259329 25.1430633,33.4935734 C25.1615184,33.4612139 25.1612777,33.42146 25.1424322,33.3893263 Z M4.15345582,20.3434821 L4.15345582,6.05686789 C4.15345582,6.02925568 4.16442473,6.00277439 4.18394951,5.9832496 C4.2034743,5.96372482 4.22995559,5.95275591 4.2575678,5.95275591 L16.104287,5.95275591 C16.6086658,5.9527558 17.0923688,6.15320332 17.4489036,6.50996787 C17.8054384,6.86673243 18.0055743,7.35056438 18.0052493,7.85494313 L18.0052493,15.7748031 C18.0047285,16.099088 17.8212949,16.395331 17.5312336,16.5403325 C14.8328959,17.8423447 10.5937008,19.4811899 4.15345582,20.3434821 Z"></path>
  </g>
</svg>
